SF Bay Microplastics Probability Distributions
…
#This dataset contains a mixture of polymer types, including known plastics, known non-plastics, and unknowns. Summarize below
sum <- distributions %>% 
  group_by(PlasticType) %>% 
  summarize(count = n()) %>% 
  mutate(freq = formattable::percent(count/sum(count))) %>% 
  arrange(desc(freq))

sum

## # A tibble: 49 x 3
##    PlasticType                  count freq      
##    <fct>                        <int> <formttbl>
##  1 Not Characterized            37107 83.90%    
##  2 Anthropogenic (unknown base)  1545 3.49%     
##  3 Polyethylene                  1174 2.65%     
##  4 Polypropylene                  507 1.15%     
##  5 Unknown                        488 1.10%     
##  6 Polystyrene                    399 0.90%     
##  7 Anthropogenic (cellulosic)     391 0.88%     
##  8 Polyester                      364 0.82%     
##  9 Unknown Potentially Rubber     298 0.67%     
## 10 Acrylic                        243 0.55%     
## # ... with 39 more rows
…
